Geospatial Disparities: A Case Study on Real Estate Prices in Paris - 3 Model Calibration
…
Let us put the results in a tibble:

data_to_display <- tibble(
  obs = obs,
  pred = pred,
  obs_labs = obs_labels, 
  pred_labs = pred_labels
) |>
  left_join(dist_q, by="pred_labs")
data_to_display

# A tibble: 11,169 × 5
      obs   pred obs_labs pred_labs  dist
    <dbl>  <dbl>    <dbl>     <dbl> <dbl>
 1  9500   9227.        2         2  891.
 2 14210  14481.        5         5 8106.
 3 11314. 13481.        4         5 8106.
 4  9838.  8553.        2         1 5305.
 5  5294.  7132.        1         1 5305.
 6  5042.  8035.        1         1 5305.
 7  8684.  8708.        1         1 5305.
 8  8167.  8931.        1         1 5305.
 9  7647.  9946.        1         3  834.
10  5581.  7339.        1         1 5305.
# ℹ 11,159 more rows
…
Let us put those values in a tibble:

data_to_display <- tibble(
  obs = obs,
  pred = pred,
  obs_labs = obs_labels, 
  pred_labs = pred_labels
)
data_to_display

# A tibble: 11,169 × 4
      obs   pred obs_labs pred_labs
    <dbl>  <dbl>    <dbl>     <dbl>
 1  9500   9227.        2         2
 2 14210  14481.        5         5
 3 11314. 13481.        4         5
 4  9838.  8553.        2         1
 5  5294.  7132.        1         1
 6  5042.  8035.        1         1
 7  8684.  8708.        1         1
 8  8167.  8931.        1         2
 9  7647.  9946.        1         3
10  5581.  7339.        1         1
# ℹ 11,159 more rows
…
Let us add the corresponding bin in data_to_display and save the tibble in a new one called x_with_class.

x_with_class <- data_to_display |>
  mutate(
    score_bin = cut(
      scores_conf,
      breaks = tb_breaks$breaks,
      labels = tb_breaks$labels[-1],
      include.lowest = TRUE
    )
  )
x_with_class

# A tibble: 11,169 × 7
      obs   pred obs_labs pred_labs scores_conf   acc score_bin
    <dbl>  <dbl>    <dbl>     <dbl>       <dbl> <dbl> <fct>    
 1  9500   9227.        2         2       0.480     1 4        
 2 14210  14481.        5         5       0.540     1 5        
 3 11314. 13481.        4         5       0.476     0 4        
 4  9838.  8553.        2         1       0.410     0 2        
 5  5294.  7132.        1         1       0.489     1 4        
 6  5042.  8035.        1         1       0.439     1 3        
 7  8684.  8708.        1         1       0.402     1 2        
 8  8167.  8931.        1         2       0.403     0 2        
 9  7647.  9946.        1         3       0.350     0 1        
10  5581.  7339.        1         1       0.478     1 4        
# ℹ 11,159 more rows
…
