Geospatial Disparities: A Case Study on Real Estate Prices in Paris - 4 Fairness
…
Then, we can compute the components of the EO formula, for each combination of \(k\) and \(k'\) (see Equation 4.1).

re_mont <- eo_measure(
  obs_name = "pm2",
  pred_name = "pm2_estimated",
  quantile_cutoffs = limits_quants, 
  group_1 = want_montmartre, 
  baseline_data = data_clean_all
)
re_mont

# A tibble: 25 × 3
   value_diff quant_observed quant_estimated
        <dbl>          <int>           <int>
 1   0.119                 1               1
 2   0.0462                1               2
 3   0.0214                1               3
 4   0.000272              1               4
 5   0.00242               1               5
 6   0.0438                2               1
 7   0.0455                2               2
 8   0.0115                2               3
 9   0.0327                2               4
10   0.00260               2               5
# ℹ 15 more rows
…
We compute the components of the EO formula:

re <- eo_measure_random(
  obs_name = "pm2",
  pred_name = "pm2_estimated",
  quantile_cutoffs = limits_quants, 
  baseline_data = data_clean_all
)
data_random <- re$data_random
re$metrics

# A tibble: 25 × 3
   value_diff quant_observed quant_estimated
        <dbl>          <int>           <int>
 1    0.0500               1               1
 2    0.0412               1               2
 3    0.00860              1               3
 4    0.00707              1               4
 5    0.0927               1               5
 6    0.0205               2               1
 7    0.0741               2               2
 8    0.0373               2               3
 9    0.00385              2               4
10    0.0948               2               5
# ℹ 15 more rows
…
